<?xml version="1.0" encoding="utf-8"?>
<!-- Generator: Adobe Illustrator 19.2.1, SVG Export Plug-In . SVG Version: 6.00 Build 0)  -->
<svg version="1.1" id="Capa_1" xmlns="http://www.w3.org/2000/svg" xmlns:xlink="http://www.w3.org/1999/xlink" x="0px" y="0px"
	 viewBox="0 0 500 500" style="enable-background:new 0 0 500 500;" xml:space="preserve">
<style type="text/css">
	.st0{fill:none;stroke:#FFFFFF;stroke-width:5;stroke-miterlimit:10;}
	.st1{fill:#FFFFFF;}
	.st2{font-family:'Montserrat-Bold';}
	.st3{font-size:18px;}
	.st4{font-family:'Montserrat-Regular';}
	.st5{display:none;fill:none;stroke:#FFFFFF;stroke-width:2;stroke-miterlimit:10;}
	.st6{fill:none;stroke:#FFFFFF;stroke-width:2;stroke-miterlimit:10;}
</style>
<image style="display:none;overflow:visible;" width="500" height="500" xlink:href="EF5F1192.jpg"  transform="matrix(1.002 0 0 1.002 0 0)">
</image>
<rect x="55" y="41" class="st0" width="56" height="50"/>
<path class="st0" d="M202.5,128.5c0,19,0,39,0,59c61.4,0,121,0,181.9,0l0.2,103.4l56.9-0.1V187.5v-59H202.5z"/>
<rect x="382.3" y="340.7" class="st0" width="59.7" height="110.3"/>
<rect x="382.7" y="430.5" class="st1" width="58.5" height="4.3"/>
<rect x="382.8" y="412.2" class="st1" width="58.5" height="4.3"/>
<rect x="382.5" y="394.8" class="st1" width="58.5" height="4.3"/>
<rect x="382.7" y="376.3" class="st1" width="58.5" height="4.3"/>
<rect x="382.5" y="357" class="st1" width="58.5" height="4.3"/>
<polygon class="st1" points="414.1,452.3 410.6,452.3 410.5,367 414,367 "/>
<rect x="407.7" y="364.3" transform="matrix(0.6362 0.7715 -0.7715 0.6362 433.7633 -181.2225)" class="st1" width="2.8" height="10"/>
<rect x="413.7" y="364.3" transform="matrix(0.6326 -0.7745 0.7745 0.6326 -133.5482 457.138)" class="st1" width="2.8" height="10"/>
<text transform="matrix(1 0 0 1 247 164)" class="st1 st2 st3">BARRA</text>
<text transform="matrix(1 0 0 1 273 478)" class="st1 st2 st3">ENTRADA</text>
<text transform="matrix(1 0 0 1 71 71)" class="st1 st2 st3">DJ</text>
<text transform="matrix(1 0 0 1 331 435)" class="st1 st4 st3">WC</text>
<text transform="matrix(1 0 0 1 88 436)" class="st1 st4 st3">WC</text>
<rect x="380" y="453" class="st1" width="4" height="39"/>
<path class="st5" d="M443,447.5V40H53v412h328.1c0.1,0.4,0.1,0.7,0,1.2c-0.2,2.4-0.2,4.7-0.2,7c0.6,3.1,1.1,6.2,1.3,9.3
	c0.4,6.4,0.8,12.8,0.7,19.2c0,1.5-0.6,2.7-1.4,3.5c5.7,2.5,12.1,3.9,18.9,3.9c24.2,0,43.8-17.6,43.8-39.3
	C444.3,453.6,443.8,450.5,443,447.5z"/>
<path id="Mesa1" class="st6" d="M284,418.5L284,418.5c-6.3,0-11.5-5.2-11.5-11.5v-20c0-6.3,5.2-11.5,11.5-11.5l0,0
	c6.3,0,11.5,5.2,11.5,11.5v20C295.5,413.3,290.3,418.5,284,418.5z"/>
<path id="Mesa2" class="st6" d="M179,418.5L179,418.5c-6.3,0-11.5-5.2-11.5-11.5v-20c0-6.3,5.2-11.5,11.5-11.5h0
	c6.3,0,11.5,5.2,11.5,11.5v20C190.5,413.3,185.3,418.5,179,418.5z"/>
<path id="Mesa3" class="st6" d="M89,348.5L89,348.5c-6.3,0-11.5-5.2-11.5-11.5v-20c0-6.3,5.2-11.5,11.5-11.5h0
	c6.3,0,11.5,5.2,11.5,11.5v20C100.5,343.3,95.3,348.5,89,348.5z"/>
<path id="Mesa4" class="st6" d="M219.5,248L219.5,248c0-6.3,5.2-11.5,11.5-11.5h20c6.3,0,11.5,5.2,11.5,11.5v0
	c0,6.3-5.2,11.5-11.5,11.5h-20C224.7,259.5,219.5,254.3,219.5,248z"/>
<path id="Mesa5" class="st6" d="M301.5,212L301.5,212c0-6.3,5.2-11.5,11.5-11.5h20c6.3,0,11.5,5.2,11.5,11.5v0
	c0,6.3-5.2,11.5-11.5,11.5h-20C306.7,223.5,301.5,218.3,301.5,212z"/>
<path id="Mesa6" class="st6" d="M173,177.5L173,177.5c-6.3,0-11.5-5.2-11.5-11.5v-20c0-6.3,5.2-11.5,11.5-11.5h0
	c6.3,0,11.5,5.2,11.5,14.5v20C184.5,172.3,179.3,177.5,173,177.5z"/>
<path id="Mesa7" class="st6" d="M80,163.5L80,163.5c-6.3,0-11.5-5.2-11.5-11.5v-20c0-6.3,5.2-11.5,11.5-11.5h0
	c6.3,0,11.5,5.2,11.5,11.5v20C91.5,158.3,86.3,163.5,80,163.5z"/>
<path id="Mesa8" class="st6" d="M150,95.5L150,95.5c-6.3,0-11.5-5.2-11.5-11.5V64c0-6.3,5.2-11.5,11.5-11.5h0
	c6.3,0,11.5,5.2,11.5,11.5v20C161.5,90.3,156.3,95.5,150,95.5z"/>
<path id="Mesa9" class="st6" d="M293.5,67L293.5,67c0-6.3,5.2-11.5,11.5-11.5h20c6.3,0,11.5,5.2,11.5,11.5v0
	c0,6.3-5.2,11.5-11.5,11.5h-20C298.7,78.5,293.5,73.3,293.5,67z"/>
<path class="st6" d="M371.5,68L371.5,68c0-6.3,5.2-11.5,11.5-11.5h20c6.3,0,11.5,5.2,11.5,11.5v0c0,6.3-5.2,11.5-11.5,11.5h-20
	C376.7,79.5,371.5,74.3,371.5,68z"/>
<rect x="55" y="40.4" class="st0" width="387.5" height="410.1"/>
<path class="st6" d="M444.3,450.7C444.3,450.7,444.3,450.8,444.3,450.7c-20.7-0.2-41.3-0.4-61.9-0.5c-0.1,8.3,0,16.5-0.7,24.8
	c0.1,2.6,0.1,5.2,0,7.7c0.5,0.8,0.7,1.6,0.7,2.5c-0.1,2.2-0.6,4.2-1.5,6c6.2,4.2,14.3,7,24.2,7c19.7,0,40.9-13.6,40.9-36.8
	C446.1,457.8,445.5,454.1,444.3,450.7z"/>
</svg>
